{
    "question": [
        {
            "id": 1,
            "question": "โจทย์อะไรเอ่ย (1)",
            "type":1,
            "ans":[4],
            "choices": [
                {"id":1,"name":"ข้อนี้ผิด(1)"},
                {"id":2,"name":"ข้อนี้ผิด(2)"},
                {"id":3,"name":"ข้อนี้ผิด(3)"},
                {"id":4,"name":"ข้อนี้ถูก(4)"}
            ]
        },
        {
            "id": 2,
            "question": "โจทย์อะไรเอ่ย (2)",
            "type":2,
            "ans":[3,4],
            "choices": [
                {"id":1,"name":"ข้อนี้ผิด(1)"},
                {"id":2,"name":"ข้อนี้ผิด(2)"},
                {"id":3,"name":"ข้อนี้ถูก(3)"},
                {"id":4,"name":"ข้อนี้ถูก(4)"}
            ]
        },
        {
            "id": 3,
            "question": "โจทย์อะไรเอ่ย (3)",
            "type":3,
            "ans":[2,3,4],
            "choices": [
                {"id":1,"name":"ข้อนี้ผิด(1)"},
                {"id":2,"name":"ข้อนี้ถูก(2)"},
                {"id":3,"name":"ข้อนี้ถูก(3)"},
                {"id":4,"name":"ข้อนี้ถูก(4)"}
            ]
        },
        {
            "id": 4,
            "question": "โจทย์อะไรเอ่ย (4)",
            "type":4,
            "ans":[1,2,3,4],
            "choices": [
                {"id":1,"name":"ข้อนี้ถูก(1)"},
                {"id":2,"name":"ข้อนี้ถูก(2)"},
                {"id":3,"name":"ข้อนี้ถูก(3)"},
                {"id":4,"name":"ข้อนี้ถูก(4)"}
            ]
        }
    ]
}